[
  {
    "id": 357994,
    "name": "Arab Republic of Egypt",
    "country": "EG",
    "coord": {
      "lon": 30,
      "lat": 27
    }
  },
  {
    "id": 360631,
    "name": "Muhafazat al Qahirah",
    "country": "EG",
    "coord": {
      "lon": 31.65,
      "lat": 30.049999
    }
  },
  {
    "id": 355449,
    "name": "Isna",
    "country": "EG",
    "coord": {
      "lon": 32.55402,
      "lat": 25.29336
    }
  },
  {
    "id": 358619,
    "name": "Port Said",
    "country": "EG",
    "coord": {
      "lon": 32.284119,
      "lat": 31.25654
    }
  },
  {
    "id": 359796,
    "name": "Suez",
    "country": "EG",
    "coord": {
      "lon": 32.526272,
      "lat": 29.973709
    }
  },
  {
    "id": 360502,
    "name": "Luxor",
    "country": "EG",
    "coord": {
      "lon": 32.642101,
      "lat": 25.698931
    }
  },
  {
    "id": 360630,
    "name": "Cairo",
    "country": "EG",
    "coord": {
      "lon": 31.24967,
      "lat": 30.06263
    }
  },
  {
    "id": 361055,
    "name": "Ismailia",
    "country": "EG",
    "coord": {
      "lon": 32.272251,
      "lat": 30.604271
    }
  },
  {
    "id": 7922173,
    "name": "Al Atabah",
    "country": "EG",
    "coord": {
      "lon": 31.251961,
      "lat": 30.050699
    }
  },
  {
    "id": 361059,
    "name": "Muhafazat al Iskandariyah",
    "country": "EG",
    "coord": {
      "lon": 29.75,
      "lat": 31
    }
  },
  {
    "id": 361058,
    "name": "Alexandria",
    "country": "EG",
    "coord": {
      "lon": 29.955271,
      "lat": 31.215639
    }
  },
  {
    "id": 347863,
    "name": "Siwah",
    "country": "EG",
    "coord": {
      "lon": 25.51952,
      "lat": 29.20409
    }
  },
  {
    "id": 360483,
    "name": "Muhafazat al Wadi al Jadid",
    "country": "EG",
    "coord": {
      "lon": 28.9,
      "lat": 24.799999
    }
  },
  {
    "id": 350661,
    "name": "Qasr al Farafirah",
    "country": "EG",
    "coord": {
      "lon": 27.96979,
      "lat": 27.056801
    }
  },
  {
    "id": 350893,
    "name": "Nuwaybia",
    "country": "EG",
    "coord": {
      "lon": 34.663399,
      "lat": 29.04681
    }
  },
  {
    "id": 352736,
    "name": "Marsa Alam",
    "country": "EG",
    "coord": {
      "lon": 34.891811,
      "lat": 25.075729
    }
  },
  {
    "id": 358245,
    "name": "Dhahab",
    "country": "EG",
    "coord": {
      "lon": 34.513378,
      "lat": 28.50098
    }
  },
  {
    "id": 360923,
    "name": "Al Kharijah",
    "country": "EG",
    "coord": {
      "lon": 30.54635,
      "lat": 25.451401
    }
  },
  {
    "id": 361612,
    "name": "Al Alamayn",
    "country": "EG",
    "coord": {
      "lon": 28.955021,
      "lat": 30.83007
    }
  },
  {
    "id": 360015,
    "name": "Ash Shatibi",
    "country": "EG",
    "coord": {
      "lon": 29.91667,
      "lat": 31.200001
    }
  },
  {
    "id": 350789,
    "name": "Qalyub",
    "country": "EG",
    "coord": {
      "lon": 31.205601,
      "lat": 30.17922
    }
  },
  {
    "id": 355795,
    "name": "Halwan",
    "country": "EG",
    "coord": {
      "lon": 31.30084,
      "lat": 29.84144
    }
  },
  {
    "id": 356933,
    "name": "Farshut",
    "country": "EG",
    "coord": {
      "lon": 32.163288,
      "lat": 26.054939
    }
  },
  {
    "id": 356945,
    "name": "Faraskur",
    "country": "EG",
    "coord": {
      "lon": 31.715071,
      "lat": 31.329769
    }
  },
  {
    "id": 356989,
    "name": "Faqus",
    "country": "EG",
    "coord": {
      "lon": 31.801821,
      "lat": 30.730061
    }
  },
  {
    "id": 358095,
    "name": "Diyarb Najm",
    "country": "EG",
    "coord": {
      "lon": 31.439251,
      "lat": 30.754219
    }
  },
  {
    "id": 358108,
    "name": "Disuq",
    "country": "EG",
    "coord": {
      "lon": 30.64649,
      "lat": 31.133051
    }
  },
  {
    "id": 358115,
    "name": "Dishna",
    "country": "EG",
    "coord": {
      "lon": 32.475979,
      "lat": 26.12467
    }
  },
  {
    "id": 358172,
    "name": "Dikirnis",
    "country": "EG",
    "coord": {
      "lon": 31.594271,
      "lat": 31.088711
    }
  },
  {
    "id": 358269,
    "name": "Dayrut",
    "country": "EG",
    "coord": {
      "lon": 30.80764,
      "lat": 27.556021
    }
  },
  {
    "id": 358274,
    "name": "Dayr Mawas",
    "country": "EG",
    "coord": {
      "lon": 30.846621,
      "lat": 27.64176
    }
  },
  {
    "id": 358970,
    "name": "Basyun",
    "country": "EG",
    "coord": {
      "lon": 30.813379,
      "lat": 30.93976
    }
  },
  {
    "id": 359173,
    "name": "Bani Suwayf",
    "country": "EG",
    "coord": {
      "lon": 31.097851,
      "lat": 29.074409
    }
  },
  {
    "id": 359280,
    "name": "Banha",
    "country": "EG",
    "coord": {
      "lon": 31.178579,
      "lat": 30.459061
    }
  },
  {
    "id": 359576,
    "name": "Awsim",
    "country": "EG",
    "coord": {
      "lon": 31.13571,
      "lat": 30.12303
    }
  },
  {
    "id": 359710,
    "name": "At Tall al Kabir",
    "country": "EG",
    "coord": {
      "lon": 31.78525,
      "lat": 30.544479
    }
  },
  {
    "id": 359797,
    "name": "Muhafazat as Suways",
    "country": "EG",
    "coord": {
      "lon": 32.299999,
      "lat": 29.700001
    }
  },
  {
    "id": 360048,
    "name": "Ashmun",
    "country": "EG",
    "coord": {
      "lon": 30.976351,
      "lat": 30.298571
    }
  },
  {
    "id": 360464,
    "name": "Al Wasitah",
    "country": "EG",
    "coord": {
      "lon": 31.205561,
      "lat": 29.33778
    }
  },
  {
    "id": 7603259,
    "name": "Muhafazat al Uqsur",
    "country": "EG",
    "coord": {
      "lon": 32.650002,
      "lat": 25.700001
    }
  },
  {
    "id": 360531,
    "name": "Al Qusayr",
    "country": "EG",
    "coord": {
      "lon": 34.277931,
      "lat": 26.104259
    }
  },
  {
    "id": 360612,
    "name": "Al Qanayat",
    "country": "EG",
    "coord": {
      "lon": 31.460991,
      "lat": 30.618799
    }
  },
  {
    "id": 360615,
    "name": "Al Qanatir al Khayriyah",
    "country": "EG",
    "coord": {
      "lon": 31.13703,
      "lat": 30.19327
    }
  },
  {
    "id": 360754,
    "name": "Al Manzilah",
    "country": "EG",
    "coord": {
      "lon": 31.937,
      "lat": 31.15815
    }
  },
  {
    "id": 360928,
    "name": "Al Khankah",
    "country": "EG",
    "coord": {
      "lon": 31.36812,
      "lat": 30.21035
    }
  },
  {
    "id": 360995,
    "name": "Al Jizah",
    "country": "EG",
    "coord": {
      "lon": 31.21093,
      "lat": 30.00808
    }
  },
  {
    "id": 361103,
    "name": "Al Ibrahimiyah",
    "country": "EG",
    "coord": {
      "lon": 31.56299,
      "lat": 30.718769
    }
  },
  {
    "id": 361179,
    "name": "Al Hawamidiyah",
    "country": "EG",
    "coord": {
      "lon": 31.25,
      "lat": 29.9
    }
  },
  {
    "id": 361329,
    "name": "Al Fashn",
    "country": "EG",
    "coord": {
      "lon": 30.899481,
      "lat": 28.82431
    }
  },
  {
    "id": 361394,
    "name": "Al Bawiti",
    "country": "EG",
    "coord": {
      "lon": 28.86591,
      "lat": 28.34919
    }
  },
  {
    "id": 361435,
    "name": "Al Balyana",
    "country": "EG",
    "coord": {
      "lon": 32.003471,
      "lat": 26.23568
    }
  },
  {
    "id": 361457,
    "name": "Al Bajur",
    "country": "EG",
    "coord": {
      "lon": 31.03681,
      "lat": 30.43026
    }
  },
  {
    "id": 361478,
    "name": "Al Badari",
    "country": "EG",
    "coord": {
      "lon": 31.415541,
      "lat": 26.992571
    }
  },
  {
    "id": 361546,
    "name": "Al Arish",
    "country": "EG",
    "coord": {
      "lon": 33.798439,
      "lat": 31.13159
    }
  },
  {
    "id": 361661,
    "name": "Akhmim",
    "country": "EG",
    "coord": {
      "lon": 31.745029,
      "lat": 26.56217
    }
  },
  {
    "id": 361702,
    "name": "Aja",
    "country": "EG",
    "coord": {
      "lon": 31.29151,
      "lat": 30.94154
    }
  },
  {
    "id": 361827,
    "name": "Ad Dilinjat",
    "country": "EG",
    "coord": {
      "lon": 30.536329,
      "lat": 30.827909
    }
  },
  {
    "id": 362277,
    "name": "Abu Qurqas",
    "country": "EG",
    "coord": {
      "lon": 30.838409,
      "lat": 27.9312
    }
  },
  {
    "id": 362485,
    "name": "Abu Kabir",
    "country": "EG",
    "coord": {
      "lon": 31.67148,
      "lat": 30.72508
    }
  },
  {
    "id": 362973,
    "name": "Abnub",
    "country": "EG",
    "coord": {
      "lon": 31.151051,
      "lat": 27.2696
    }
  },
  {
    "id": 419435,
    "name": "Az Zarqa",
    "country": "EG",
    "coord": {
      "lon": 31.63554,
      "lat": 31.20829
    }
  },
  {
    "id": 7521348,
    "name": "Ain Sukhna",
    "country": "EG",
    "coord": {
      "lon": 32.316711,
      "lat": 29.60018
    }
  },
  {
    "id": 360542,
    "name": "Al Qurayn",
    "country": "EG",
    "coord": {
      "lon": 31.73514,
      "lat": 30.61618
    }
  },
  {
    "id": 361495,
    "name": "Al Ayyat",
    "country": "EG",
    "coord": {
      "lon": 31.2575,
      "lat": 29.61972
    }
  },
  {
    "id": 362882,
    "name": "Abu al Matamir",
    "country": "EG",
    "coord": {
      "lon": 30.174379,
      "lat": 30.910179
    }
  },
  {
    "id": 359678,
    "name": "Tor",
    "country": "EG",
    "coord": {
      "lon": 33.625401,
      "lat": 28.23638
    }
  },
  {
    "id": 7910966,
    "name": "Beheira",
    "country": "EG",
    "coord": {
      "lon": 30.34355,
      "lat": 30.51478
    }
  },
  {
    "id": 346030,
    "name": "Zifta",
    "country": "EG",
    "coord": {
      "lon": 31.244249,
      "lat": 30.714199
    }
  },
  {
    "id": 348112,
    "name": "Sidi Salim",
    "country": "EG",
    "coord": {
      "lon": 30.78665,
      "lat": 31.271049
    }
  },
  {
    "id": 349114,
    "name": "Shirbin",
    "country": "EG",
    "coord": {
      "lon": 31.521271,
      "lat": 31.19544
    }
  },
  {
    "id": 349156,
    "name": "Shibin al Qanatir",
    "country": "EG",
    "coord": {
      "lon": 31.320181,
      "lat": 30.312691
    }
  },
  {
    "id": 350370,
    "name": "Quwaysina",
    "country": "EG",
    "coord": {
      "lon": 31.15777,
      "lat": 30.564819
    }
  },
  {
    "id": 352354,
    "name": "Minuf",
    "country": "EG",
    "coord": {
      "lon": 30.931641,
      "lat": 30.46579
    }
  },
  {
    "id": 352913,
    "name": "Manfalut",
    "country": "EG",
    "coord": {
      "lon": 30.970039,
      "lat": 27.3104
    }
  },
  {
    "id": 353219,
    "name": "6th of October city",
    "country": "EG",
    "coord": {
      "lon": 31.049999,
      "lat": 29.816669
    }
  },
  {
    "id": 353828,
    "name": "Kawm Hamadah",
    "country": "EG",
    "coord": {
      "lon": 30.69733,
      "lat": 30.76096
    }
  },
  {
    "id": 354981,
    "name": "Juhaynah",
    "country": "EG",
    "coord": {
      "lon": 31.497601,
      "lat": 26.673189
    }
  },
  {
    "id": 360526,
    "name": "Al Qusiyah",
    "country": "EG",
    "coord": {
      "lon": 30.818411,
      "lat": 27.440201
    }
  },
  {
    "id": 360686,
    "name": "Al Minya",
    "country": "EG",
    "coord": {
      "lon": 30.750299,
      "lat": 28.10988
    }
  },
  {
    "id": 6692512,
    "name": "El Gouna",
    "country": "EG",
    "coord": {
      "lon": 33.678249,
      "lat": 27.394171
    }
  },
  {
    "id": 6692518,
    "name": "Makadi Bay",
    "country": "EG",
    "coord": {
      "lon": 33.899521,
      "lat": 26.99123
    }
  },
  {
    "id": 360688,
    "name": "Muhafazat al Minya",
    "country": "EG",
    "coord": {
      "lon": 30,
      "lat": 28.1
    }
  },
  {
    "id": 432887,
    "name": "Al Amal (Nimrah Thamaniyah)",
    "country": "EG",
    "coord": {
      "lon": 30.603649,
      "lat": 28.1054
    }
  },
  {
    "id": 361323,
    "name": "Muhafazat al Fayyum",
    "country": "EG",
    "coord": {
      "lon": 30.5,
      "lat": 29.299999
    }
  },
  {
    "id": 359416,
    "name": "Baha",
    "country": "EG",
    "coord": {
      "lon": 31.012251,
      "lat": 29.139429
    }
  },
  {
    "id": 361056,
    "name": "Muhafazat al Isma‘iliyah",
    "country": "EG",
    "coord": {
      "lon": 32.400002,
      "lat": 30.6
    }
  },
  {
    "id": 349598,
    "name": "Sarabiyum",
    "country": "EG",
    "coord": {
      "lon": 32.291111,
      "lat": 30.375561
    }
  },
  {
    "id": 361370,
    "name": "Muhafazat al Buhayrah",
    "country": "EG",
    "coord": {
      "lon": 30.200001,
      "lat": 30.6
    }
  },
  {
    "id": 408911,
    "name": "Al Wihdah",
    "country": "EG",
    "coord": {
      "lon": 30.07633,
      "lat": 30.581699
    }
  },
  {
    "id": 357678,
    "name": "Izbat Abu Atwah",
    "country": "EG",
    "coord": {
      "lon": 32.260559,
      "lat": 30.5644
    }
  },
  {
    "id": 358448,
    "name": "Damanhur",
    "country": "EG",
    "coord": {
      "lon": 30.469139,
      "lat": 31.039169
    }
  },
  {
    "id": 355182,
    "name": "Muhafazat Janub Sina’",
    "country": "EG",
    "coord": {
      "lon": 33.799999,
      "lat": 29
    }
  },
  {
    "id": 349340,
    "name": "Sharm ash Shaykh",
    "country": "EG",
    "coord": {
      "lon": 34.304989,
      "lat": 27.85183
    }
  },
  {
    "id": 361320,
    "name": "Al Fayyum",
    "country": "EG",
    "coord": {
      "lon": 30.841801,
      "lat": 29.30995
    }
  },
  {
    "id": 361294,
    "name": "Muhafazat al Gharbiyah",
    "country": "EG",
    "coord": {
      "lon": 31,
      "lat": 30.9
    }
  },
  {
    "id": 347497,
    "name": "Tanda",
    "country": "EG",
    "coord": {
      "lon": 31.001921,
      "lat": 30.788469
    }
  },
  {
    "id": 361468,
    "name": "Muhafazat al Bahr al Ahmar",
    "country": "EG",
    "coord": {
      "lon": 33.788448,
      "lat": 27.186239
    }
  },
  {
    "id": 6692521,
    "name": "Port el Ghalib",
    "country": "EG",
    "coord": {
      "lon": 33.82682,
      "lat": 27.25425
    }
  },
  {
    "id": 354365,
    "name": "Kafr az Zayyat",
    "country": "EG",
    "coord": {
      "lon": 30.81805,
      "lat": 30.8248
    }
  },
  {
    "id": 360016,
    "name": "Muhafazat ash Sharqiyah",
    "country": "EG",
    "coord": {
      "lon": 31.799999,
      "lat": 30.700001
    }
  },
  {
    "id": 359493,
    "name": "Az Zaqaziq",
    "country": "EG",
    "coord": {
      "lon": 31.502001,
      "lat": 30.587681
    }
  },
  {
    "id": 360621,
    "name": "Muhafazat al Qalyubiyah",
    "country": "EG",
    "coord": {
      "lon": 31.25,
      "lat": 30.299999
    }
  },
  {
    "id": 351022,
    "name": "Nisf Atrib",
    "country": "EG",
    "coord": {
      "lon": 31.183331,
      "lat": 30.466669
    }
  },
  {
    "id": 350546,
    "name": "Muhafazat Qina",
    "country": "EG",
    "coord": {
      "lon": 32.75,
      "lat": 25.799999
    }
  },
  {
    "id": 350550,
    "name": "Qina",
    "country": "EG",
    "coord": {
      "lon": 32.726711,
      "lat": 26.164181
    }
  },
  {
    "id": 357542,
    "name": "Ezbet el-Auqat",
    "country": "EG",
    "coord": {
      "lon": 31.30526,
      "lat": 29.865339
    }
  },
  {
    "id": 359781,
    "name": "Muhafazat Asyut",
    "country": "EG",
    "coord": {
      "lon": 31.1,
      "lat": 27.200001
    }
  },
  {
    "id": 359783,
    "name": "Asyut",
    "country": "EG",
    "coord": {
      "lon": 31.18368,
      "lat": 27.18096
    }
  },
  {
    "id": 347794,
    "name": "Muhafazat Suhaj",
    "country": "EG",
    "coord": {
      "lon": 31.700001,
      "lat": 26.5
    }
  },
  {
    "id": 347796,
    "name": "Suhaj",
    "country": "EG",
    "coord": {
      "lon": 31.69478,
      "lat": 26.55695
    }
  },
  {
    "id": 358044,
    "name": "Muhafazat Dumyat",
    "country": "EG",
    "coord": {
      "lon": 31.75,
      "lat": 31.35
    }
  },
  {
    "id": 358048,
    "name": "Damietta",
    "country": "EG",
    "coord": {
      "lon": 31.81332,
      "lat": 31.416479
    }
  },
  {
    "id": 359787,
    "name": "Muhafazat Aswan",
    "country": "EG",
    "coord": {
      "lon": 32.900002,
      "lat": 23.299999
    }
  },
  {
    "id": 359792,
    "name": "Aswan",
    "country": "EG",
    "coord": {
      "lon": 32.90704,
      "lat": 24.09343
    }
  },
  {
    "id": 358617,
    "name": "Muhafazat Bur Sa‘id",
    "country": "EG",
    "coord": {
      "lon": 32.299999,
      "lat": 31.1
    }
  },
  {
    "id": 412814,
    "name": "Syria",
    "country": "EG",
    "coord": {
      "lon": 32.299999,
      "lat": 31.26667
    }
  },
  {
    "id": 351483,
    "name": "Naj‘ al Khutbah",
    "country": "EG",
    "coord": {
      "lon": 32.633331,
      "lat": 25.683331
    }
  },
  {
    "id": 361849,
    "name": "Muhafazat ad Daqahliyah",
    "country": "EG",
    "coord": {
      "lon": 31.6,
      "lat": 31.1
    }
  },
  {
    "id": 347591,
    "name": "Talkha",
    "country": "EG",
    "coord": {
      "lon": 31.377871,
      "lat": 31.0539
    }
  },
  {
    "id": 349852,
    "name": "Sahil tahta",
    "country": "EG",
    "coord": {
      "lon": 31.5,
      "lat": 26.76667
    }
  },
  {
    "id": 359212,
    "name": "Bani Mazar",
    "country": "EG",
    "coord": {
      "lon": 30.8004,
      "lat": 28.503599
    }
  },
  {
    "id": 359171,
    "name": "Muhafazat Bani Suwayf",
    "country": "EG",
    "coord": {
      "lon": 30.6,
      "lat": 28.9
    }
  },
  {
    "id": 361024,
    "name": "Al Janadilah",
    "country": "EG",
    "coord": {
      "lon": 31.08333,
      "lat": 29.066669
    }
  },
  {
    "id": 360829,
    "name": "Al Mahallah al Kubra",
    "country": "EG",
    "coord": {
      "lon": 31.164989,
      "lat": 30.974501
    }
  },
  {
    "id": 360689,
    "name": "Muhafazat al Minufiyah",
    "country": "EG",
    "coord": {
      "lon": 31,
      "lat": 30.5
    }
  },
  {
    "id": 347612,
    "name": "Tala",
    "country": "EG",
    "coord": {
      "lon": 30.942921,
      "lat": 30.68025
    }
  },
  {
    "id": 353223,
    "name": "Madinat as Sadat",
    "country": "EG",
    "coord": {
      "lon": 30.508711,
      "lat": 30.36742
    }
  },
  {
    "id": 362004,
    "name": "Abu Tij",
    "country": "EG",
    "coord": {
      "lon": 31.31897,
      "lat": 27.044109
    }
  },
  {
    "id": 358620,
    "name": "Bur Safajah",
    "country": "EG",
    "coord": {
      "lon": 33.936508,
      "lat": 26.729179
    }
  },
  {
    "id": 349158,
    "name": "Shibin al Kawm",
    "country": "EG",
    "coord": {
      "lon": 31.009041,
      "lat": 30.55258
    }
  },
  {
    "id": 352951,
    "name": "Mallawi",
    "country": "EG",
    "coord": {
      "lon": 30.84165,
      "lat": 27.7314
    }
  },
  {
    "id": 360761,
    "name": "Al Mansurah",
    "country": "EG",
    "coord": {
      "lon": 31.38069,
      "lat": 31.036369
    }
  },
  {
    "id": 351434,
    "name": "Naj Hammadi",
    "country": "EG",
    "coord": {
      "lon": 32.241421,
      "lat": 26.04949
    }
  },
  {
    "id": 360997,
    "name": "Muhafazat al Jizah",
    "country": "EG",
    "coord": {
      "lon": 31.05286,
      "lat": 29.997761
    }
  },
  {
    "id": 354500,
    "name": "Muhafazat Kafr ash Shaykh",
    "country": "EG",
    "coord": {
      "lon": 30.9,
      "lat": 31.299999
    }
  },
  {
    "id": 359304,
    "name": "Balṭîm",
    "country": "EG",
    "coord": {
      "lon": 31.09094,
      "lat": 31.55463
    }
  },
  {
    "id": 411165,
    "name": "Idfu",
    "country": "EG",
    "coord": {
      "lon": 32.874722,
      "lat": 24.98028
    }
  },
  {
    "id": 352603,
    "name": "Muhafazat Matruh",
    "country": "EG",
    "coord": {
      "lon": 27.5,
      "lat": 29.700001
    }
  },
  {
    "id": 352733,
    "name": "Marsa Matruh",
    "country": "EG",
    "coord": {
      "lon": 27.245279,
      "lat": 31.352539
    }
  },
  {
    "id": 361291,
    "name": "Al Ghardaqah",
    "country": "EG",
    "coord": {
      "lon": 33.812908,
      "lat": 27.25738
    }
  },
  {
    "id": 362041,
    "name": "Abu Sunbul",
    "country": "EG",
    "coord": {
      "lon": 31.61624,
      "lat": 22.345699
    }
  },
  {
    "id": 349401,
    "name": "Muhafazat Shamal Sina",
    "country": "EG",
    "coord": {
      "lon": 33.700001,
      "lat": 30.5
    }
  }
]